jingyi.github.io - Final Project demo Website
…
Overview

My final project mainly analyzes the health conditions among children under 18 based on some particular demographics from 1997 to 2018.

Data

The data needed for analysis is downloaded from data.gov. The original data has been published from Centers for Disease Control and Prevention in Jun 2021.

This data set consists of information about the health conditions among children under 18 years old based on particular population characteristics. It can help get information regarding the illness that is prevalent among minors, the percentage of children for each illness based on the different demographic characteristics, and more.

health <- read_csv("~/DACSS-601/Final Project/Health_conditions_among_children_under_age_18__by_selected_characteristics__United_States.csv")

health %>% print(n= 10, width = Inf)

# A tibble: 2,744 × 16
   INDICATOR                                    
   <chr>                                        
 1 Health conditions among children under age 18
 2 Health conditions among children under age 18
 3 Health conditions among children under age 18
 4 Health conditions among children under age 18
 5 Health conditions among children under age 18
 6 Health conditions among children under age 18
 7 Health conditions among children under age 18
 8 Health conditions among children under age 18
 9 Health conditions among children under age 18
10 Health conditions among children under age 18
   PANEL                                       PANEL_NUM
   <chr>                                           <dbl>
 1 Current asthma among persons under 18 years         1
 2 Current asthma among persons under 18 years         1
 3 ADHD among persons under 18 years                   3
 4 ADHD among persons under 18 years                   3
 5 ADHD among persons under 18 years                   3
 6 Current asthma among persons under 18 years         1
 7 Current asthma among persons under 18 years         1
 8 Current asthma among persons under 18 years         1
 9 Current asthma among persons under 18 years         1
10 Current asthma among persons under 18 years         1
   UNIT                       UNIT_NUM STUB_NAME STUB_NAME_NUM STUB_LABEL    
   <chr>                         <dbl> <chr>             <dbl> <chr>         
 1 Percent of children, crude        1 Total                 0 Under 18 years
 2 Percent of children, crude        1 Total                 0 Under 18 years
 3 Percent of children, crude        1 Age                   1 10-17 years   
 4 Percent of children, crude        1 Age                   1 10-17 years   
 5 Percent of children, crude        1 Age                   1 10-17 years   
 6 Percent of children, crude        1 Total                 0 Under 18 years
 7 Percent of children, crude        1 Total                 0 Under 18 years
 8 Percent of children, crude        1 Total                 0 Under 18 years
 9 Percent of children, crude        1 Total                 0 Under 18 years
10 Percent of children, crude        1 Total                 0 Under 18 years
   STUB_LABEL_NUM YEAR      YEAR_NUM AGE            AGE_NUM ESTIMATE    SE FLAG 
            <dbl> <chr>        <dbl> <chr>            <dbl>    <dbl> <dbl> <chr>
 1           0    1997-1999        1 Under 18 years     0       NA    NA   ...  
 2           0    2000-2002        2 Under 18 years     0       NA    NA   ...  
 3           1.22 1997-1999        1 10-17 years        2.2      7.6   0.2 <NA> 
 4           1.22 2000-2002        2 10-17 years        2.2      9     0.3 <NA> 
 5           1.22 2003-2005        3 10-17 years        2.2      8.9   0.3 <NA> 
 6           0    2003-2005        3 Under 18 years     0        8.7   0.2 <NA> 
 7           0    2006-2008        4 Under 18 years     0        9.3   0.2 <NA> 
 8           0    2007-2009        5 Under 18 years     0        9.4   0.2 <NA> 
 9           0    2008-2010        6 Under 18 years     0        9.5   0.2 <NA> 
10           0    2009-2011        7 Under 18 years     0        9.5   0.2 <NA> 
# ℹ 2,734 more rows
…
health_clean %>% print(n= 10, width = Inf)

# A tibble: 2,516 × 9
   illness characteristics          sub_name                             
   <chr>   <chr>                    <chr>                                
 1 "ADHD " Age                      10-17 years                          
 2 "ADHD " Age                      5-17 years                           
 3 "ADHD " Age                      5-9 years                            
 4 "ADHD " Sex                      Male                                 
 5 "ADHD " Sex                      Female                               
 6 "ADHD " Race                     White only                           
 7 "ADHD " Race                     Black or African American only       
 8 "ADHD " Race                     American Indian or Alaska Native only
 9 "ADHD " Race                     Asian only                           
10 "ADHD " Hispanic origin and race Hispanic or Latino: All races        
   year      year_number percentage    se percentage_high percentage_low
   <chr>           <dbl>      <dbl> <dbl>           <dbl>          <dbl>
 1 1997-1999           1        7.6   0.2             7.8            7.4
 2 1997-1999           1        6.5   0.2             6.7            6.3
 3 1997-1999           1        4.8   0.2             5              4.6
 4 1997-1999           1        9.6   0.3             9.9            9.3
 5 1997-1999           1        3.2   0.2             3.4            3  
 6 1997-1999           1        7.1   0.2             7.3            6.9
 7 1997-1999           1        5     0.3             5.3            4.7
 8 1997-1999           1        8.5   1.9            10.4            6.6
 9 1997-1999           1        1.7   0.5             2.2            1.2
10 1997-1999           1        3.6   0.3             3.9            3.3
# ℹ 2,506 more rows
…
