jingyi.github.io - Final Project- Demo
…
[1] "ADHD "                                        
[2] "Asthma attack in last 12 months "             
[3] "Current asthma "                              
[4] "Ear infections "                              
[5] "Food allergy "                                
[6] "Hay fever or respiratory allergy "            
[7] "Serious emotional or behavioral difficulties "
[8] "Skin allergy "                                

data_frame <- map(illness_name,numerical_summary_table)

data_frame

[[1]]
# A tibble: 84 × 14
# Groups:   characteristics [6]
   characteristics year      mean_percentage median_percentage sd_percentage
   <chr>           <chr>               <dbl>             <dbl>         <dbl>
 1 Age             1997-1999            6.3                6.5          1.41
 2 Age             2000-2002            7.23               7.5          1.91
 3 Age             2003-2005            7.37               7.6          1.66
 4 Age             2006-2008            8.2                8.5          1.97
 5 Age             2007-2009            8.57               9            2.58
 6 Age             2008-2010            9.03               9.4          2.57
 7 Age             2009-2011            9.2                9.6          2.72
 8 Age             2010-2012            9.57               9.9          2.42
 9 Age             2011-2013            9.73              10.1          2.27
10 Age             2012-2014            9.9               10.2          2.07
# ℹ 74 more rows
# ℹ 9 more variables: range_percentage <dbl>, max_percentage <dbl>,
#   min_percentage <dbl>, quant25 <dbl>, quant50 <dbl>, quant75 <dbl>,
#   IQR <dbl>, extrem_value_range_percentage_max <dbl>,
#   extrem_value_range_percentage_min <dbl>

[[2]]
# A tibble: 98 × 14
# Groups:   characteristics [7]
   characteristics year      mean_percentage median_percentage sd_percentage
   <chr>           <chr>               <dbl>             <dbl>         <dbl>
 1 Age             1997-1999            5.35              5.65         0.705
 2 Age             2000-2002            5.75              6            0.719
 3 Age             2003-2005            5.45              5.75         0.850
 4 Age             2006-2008            5.6               5.65         1.04 
 5 Age             2007-2009            5.52              5.8          0.842
 6 Age             2008-2010            5.7               5.95         0.913
 7 Age             2009-2011            5.62              5.9          0.768
 8 Age             2010-2012            5.65              5.9          1.03 
 9 Age             2011-2013            5.35              5.8          1.18 
10 Age             2012-2014            5.03              5.45         1.40 
# ℹ 88 more rows
# ℹ 9 more variables: range_percentage <dbl>, max_percentage <dbl>,
#   min_percentage <dbl>, quant25 <dbl>, quant50 <dbl>, quant75 <dbl>,
#   IQR <dbl>, extrem_value_range_percentage_max <dbl>,
#   extrem_value_range_percentage_min <dbl>

[[3]]
# A tibble: 84 × 14
# Groups:   characteristics [7]
   characteristics year      mean_percentage median_percentage sd_percentage
   <chr>           <chr>               <dbl>             <dbl>         <dbl>
 1 Age             2003-2005            8.68              9.35          1.75
 2 Age             2006-2008            9.43             10.4           2.15
 3 Age             2007-2009            9.5              10.4           2.08
 4 Age             2008-2010            9.65             10.8           2.30
 5 Age             2009-2011            9.6              10.4           2.16
 6 Age             2010-2012            9.5              10.5           2.28
 7 Age             2011-2013            9.12             10.1           2.45
 8 Age             2012-2014            8.82             10.1           2.83
 9 Age             2013-2015            8.52              9.7           2.78
10 Age             2014-2016            8.52              9.75          2.84
# ℹ 74 more rows
# ℹ 9 more variables: range_percentage <dbl>, max_percentage <dbl>,
#   min_percentage <dbl>, quant25 <dbl>, quant50 <dbl>, quant75 <dbl>,
#   IQR <dbl>, extrem_value_range_percentage_max <dbl>,
#   extrem_value_range_percentage_min <dbl>

[[4]]
# A tibble: 98 × 14
# Groups:   characteristics [7]
   characteristics year      mean_percentage median_percentage sd_percentage
   <chr>           <chr>               <dbl>             <dbl>         <dbl>
 1 Age             1997-1999            7.2               5.95          4.62
 2 Age             2000-2002            6.78              5.7           4.34
 3 Age             2003-2005            5.8               4.75          3.68
 4 Age             2006-2008            5.52              4.7           3.56
 5 Age             2007-2009            5.45              4.55          3.65
 6 Age             2008-2010            5.6               4.65          3.91
 7 Age             2009-2011            5.58              4.85          3.58
 8 Age             2010-2012            5.62              4.85          3.59
 9 Age             2011-2013            5.65              5             3.39
10 Age             2012-2014            5.32              4.65          3.24
# ℹ 88 more rows
# ℹ 9 more variables: range_percentage <dbl>, max_percentage <dbl>,
#   min_percentage <dbl>, quant25 <dbl>, quant50 <dbl>, quant75 <dbl>,
#   IQR <dbl>, extrem_value_range_percentage_max <dbl>,
#   extrem_value_range_percentage_min <dbl>

[[5]]
# A tibble: 98 × 14
# Groups:   characteristics [7]
   characteristics year      mean_percentage median_percentage sd_percentage
   <chr>           <chr>               <dbl>             <dbl>         <dbl>
 1 Age             1997-1999            3.4               3.35        0.294 
 2 Age             2000-2002            3.58              3.5         0.310 
 3 Age             2003-2005            3.75              3.6         0.370 
 4 Age             2006-2008            4.25              4.1         0.370 
 5 Age             2007-2009            4.58              4.5         0.310 
 6 Age             2008-2010            4.78              4.65        0.287 
 7 Age             2009-2011            5.12              5.1         0.0500
 8 Age             2010-2012            5.28              5.25        0.171 
 9 Age             2011-2013            5.62              5.6         0.287 
10 Age             2012-2014            5.6               5.55        0.455 
# ℹ 88 more rows
# ℹ 9 more variables: range_percentage <dbl>, max_percentage <dbl>,
#   min_percentage <dbl>, quant25 <dbl>, quant50 <dbl>, quant75 <dbl>,
#   IQR <dbl>, extrem_value_range_percentage_max <dbl>,
#   extrem_value_range_percentage_min <dbl>

[[6]]
# A tibble: 98 × 14
# Groups:   characteristics [7]
   characteristics year      mean_percentage median_percentage sd_percentage
   <chr>           <chr>               <dbl>             <dbl>         <dbl>
 1 Age             1997-1999            17.4              18.6          4.79
 2 Age             2000-2002            17.6              19.2          5.04
 3 Age             2003-2005            17.3              19.0          4.99
 4 Age             2006-2008            16.6              18.2          4.19
 5 Age             2007-2009            16.8              18.2          4.61
 6 Age             2008-2010            17.2              18.7          4.54
 7 Age             2009-2011            17.1              18.4          4.44
 8 Age             2010-2012            16.8              17.9          4.22
 9 Age             2011-2013            16.6              17.7          4.23
10 Age             2012-2014            16.0              17.5          4.43
# ℹ 88 more rows
# ℹ 9 more variables: range_percentage <dbl>, max_percentage <dbl>,
#   min_percentage <dbl>, quant25 <dbl>, quant50 <dbl>, quant75 <dbl>,
#   IQR <dbl>, extrem_value_range_percentage_max <dbl>,
#   extrem_value_range_percentage_min <dbl>

[[7]]
# A tibble: 72 × 14
# Groups:   characteristics [6]
   characteristics year      mean_percentage median_percentage sd_percentage
   <chr>           <chr>               <dbl>             <dbl>         <dbl>
 1 Age             2003-2005            5                  5.1         0.656
 2 Age             2006-2008            5.33               5.4         0.404
 3 Age             2007-2009            5.4                5.5         0.656
 4 Age             2008-2010            5.7                5.8         0.557
 5 Age             2009-2011            5.7                5.8         0.656
 6 Age             2010-2012            5.7                5.8         0.557
 7 Age             2011-2013            5.43               5.5         0.404
 8 Age             2012-2014            5.37               5.4         0.252
 9 Age             2013-2015            5.67               5.7         0.252
10 Age             2014-2016            5.57               5.6         0.351
# ℹ 62 more rows
# ℹ 9 more variables: range_percentage <dbl>, max_percentage <dbl>,
#   min_percentage <dbl>, quant25 <dbl>, quant50 <dbl>, quant75 <dbl>,
#   IQR <dbl>, extrem_value_range_percentage_max <dbl>,
#   extrem_value_range_percentage_min <dbl>

[[8]]
# A tibble: 98 × 14
# Groups:   characteristics [7]
   characteristics year      mean_percentage median_percentage sd_percentage
   <chr>           <chr>               <dbl>             <dbl>         <dbl>
 1 Age             1997-1999            7.48              7.35         0.45 
 2 Age             2000-2002            8.18              8.25         0.574
 3 Age             2003-2005            9.68              9.55         1.06 
 4 Age             2006-2008           10.1               9.85         1.23 
 5 Age             2007-2009           10.8              10.8          1.37 
 6 Age             2008-2010           12.0              12.2          1.40 
 7 Age             2009-2011           12.5              12.4          1.45 
 8 Age             2010-2012           12.5              12.3          1.57 
 9 Age             2011-2013           12.2              12            1.43 
10 Age             2012-2014           11.9              12.0          1.41 
# ℹ 88 more rows
# ℹ 9 more variables: range_percentage <dbl>, max_percentage <dbl>,
#   min_percentage <dbl>, quant25 <dbl>, quant50 <dbl>, quant75 <dbl>,
#   IQR <dbl>, extrem_value_range_percentage_max <dbl>,
#   extrem_value_range_percentage_min <dbl>
…
